mash-dist
…
df.chr %>% 
    # select(-starts_with("mMyoAui1"), -starts_with("mMyoYum1", -starts_with)) %>% 
    filter(genome == "mMyoAui1") %>% 
    select(starts_with("mMyoSep"), genome, hap, scaffold) %>% 
  pivot_longer(-c(genome,hap,scaffold)) %>% 
  group_by(genome, hap, scaffold) %>% 
  filter(value == min(value)) %>% 
  summarize(closest = name, value=value)

`summarise()` has grouped output by 'genome', 'hap', 'scaffold'. You can
override using the `.groups` argument.

# A tibble: 148 × 5
# Groups:   genome, hap, scaffold [136]
   genome   hap   scaffold   closest                       value
   <chr>    <chr> <chr>      <chr>                         <dbl>
 1 mMyoAui1 0     SUPER__1   mMyoSep1.0.HiC_scaffold_18   0.0131
 2 mMyoAui1 0     SUPER__10  mMyoSep1.0.HiC_scaffold_8    0.0137
 3 mMyoAui1 0     SUPER__101 mMyoSep1.0.HiC_scaffold_107  0.0328
 4 mMyoAui1 0     SUPER__102 mMyoSep1.0.HiC_scaffold_107  0.0223
 5 mMyoAui1 0     SUPER__103 mMyoSep1.0.HiC_scaffold_1971 0.225 
 6 mMyoAui1 0     SUPER__103 mMyoSep1.0.HiC_scaffold_2015 0.225 
 7 mMyoAui1 0     SUPER__103 mMyoSep1.0.HiC_scaffold_2188 0.225 
 8 mMyoAui1 0     SUPER__103 mMyoSep1.0.HiC_scaffold_2343 0.225 
 9 mMyoAui1 0     SUPER__103 mMyoSep1.0.HiC_scaffold_2345 0.225 
10 mMyoAui1 0     SUPER__103 mMyoSep1.0.HiC_scaffold_2605 0.225 
# … with 138 more rows
…
