StableTraits
…
size_ancstates <- readr::read_tsv('../data/stableTraits/UphamEtAl2019_harmonizednames_withSizeLifeLn_size_concat.ancstates')

Rows: 2315 Columns: 5
── Column specification ────────────────────────────────────────────────────────
Delimiter: "\t"
chr (1): Parameter
dbl (4): Brownian, Median, 95%CI_Low, 95%CI_High

ℹ Use `spec()` to retrieve the full column specification for this data.
ℹ Specify the column types or set `show_col_types = FALSE` to quiet this message.

size_ancstates

# A tibble: 2,315 × 5
   Parameter                Brownian Median `95%CI_Low` `95%CI_High`
   <chr>                       <dbl>  <dbl>       <dbl>        <dbl>
 1 stable_alpha                2      1.66        1.56         1.75 
 2 stable_scale                0.150  0.128       0.112        0.145
 3 n0                          6.62   6.24        2.70        10.2  
 4 n1                          7.63   7.59        4.85        10.3  
 5 Ornithorhynchus_anatinus    7.30   7.30        7.30         7.30 
 6 Tachyglossus_aculeatus      8.41   8.41        8.41         8.41 
 7 n2                          6.48   6.03        2.82         9.52 
 8 n3                          6.80   6.04        4.60         7.64 
 9 n4                          6.49   5.77        4.49         7.12 
10 n5                          6.41   5.58        4.22         7.08 
# ℹ 2,305 more rows
…
life_ancstates <- readr::read_tsv('../data/stableTraits/UphamEtAl2019_harmonizednames_withSizeLifeLn_life_concat.ancstates')

Rows: 2315 Columns: 5
── Column specification ────────────────────────────────────────────────────────
Delimiter: "\t"
chr (1): Parameter
dbl (4): Brownian, Median, 95%CI_Low, 95%CI_High

ℹ Use `spec()` to retrieve the full column specification for this data.
ℹ Specify the column types or set `show_col_types = FALSE` to quiet this message.

life_ancstates

# A tibble: 2,315 × 5
   Parameter                Brownian Median `95%CI_Low` `95%CI_High`
   <chr>                       <dbl>  <dbl>       <dbl>        <dbl>
 1 stable_alpha               2      1.72        1.63         1.79  
 2 stable_scale               0.0871 0.0651      0.0579       0.0722
 3 n0                         2.50   2.53        0.749        4.41  
 4 n1                         3.33   3.37        2.05         4.61  
 5 Ornithorhynchus_anatinus   3.12   3.12        3.12         3.12  
 6 Tachyglossus_aculeatus     3.91   3.91        3.91         3.91  
 7 n2                         2.38   2.39        0.832        4.00  
 8 n3                         2.40   2.41        1.83         3.01  
 9 n4                         2.36   2.37        1.85         2.89  
10 n5                         2.35   2.35        1.82         2.90  
# ℹ 2,305 more rows
…
